<?xml version="1.0" encoding="utf-8"?>
<!DOCTYPE svg PUBLIC "-//W3C//DTD SVG 1.1//EN" "http://www.w3.org/Graphics/SVG/1.1/DTD/svg11.dtd">
<svg version="1.1" id="Layer_1" xmlns="http://www.w3.org/2000/svg" viewBox="0 0 512 512">
<style type="text/css">
<![CDATA[
	.st0{fill:#FFFFFF;}
]]>
</style>
<g>
	<path class="st0" d="M49.8334961,114.7519531v241.6660156h412.840332V114.7519531H49.8334961z M457.0820313,350.8222656H54.3095703
		V120.3476563h402.7724609V350.8222656z"/>
	<g>
		<rect x="228.578125" y="350.7529297" class="st0" width="56.2128906" height="40.5224609"/>
		<path class="st0" d="M463.6855469,397.6777344c-33.7333984-9.1523438-113.9492188-15.59375-207.5629883-15.59375
			c-93.6132813,0-173.8237305,6.4384766-207.5625,15.59375H463.6855469z"/>
	</g>
</g>
<path class="st0" d="M57,124v222h397V124H57z M304.6865234,242.8022461l-93.7749023,54.0004883
	C203.9428711,300.8261719,198,297.5341797,198,289.4873047V181.4858398c0-8.046875,5.9428711-11.3393555,12.9116211-7.315918
	l93.6538086,54.0019531C311.5341797,232.1953125,311.6552734,238.7788086,304.6865234,242.8022461z"/>
</svg>
