<?xml version="1.0" encoding="utf-8"?>
<!DOCTYPE svg PUBLIC "-//W3C//DTD SVG 1.1//EN" "http://www.w3.org/Graphics/SVG/1.1/DTD/svg11.dtd">
<svg version="1.1" id="Layer_1" xmlns="http://www.w3.org/2000/svg" viewBox="0 0 512 512">
<style type="text/css">
<![CDATA[
	.st0{fill:#FFFFFF;}
	.st1{fill:none;stroke:#FFFFFF;stroke-width:18;stroke-linecap:round;stroke-linejoin:round;stroke-miterlimit:10;}
	.st2{fill:none;stroke:#FFFFFF;stroke-width:28;stroke-linecap:round;stroke-linejoin:round;stroke-miterlimit:10;}
]]>
</style>
<path class="st0" d="M338.109375,296.828125v-11.5039063l-1.6708984-0.6435547
	c-0.5664063-0.2304688-14.0830078-5.4697266-32.1064453-5.4697266c-19.2949219,0-35.9550781,5.8896484-49.4794922,17.4824219
	c-13.5429688-11.5927734-30.1757813-17.4824219-49.5009766-17.4824219c-18.0185547,0-31.5410156,5.2392578-32.1044922,5.4697266
	l-1.6396484,0.6435547v10.6572266c-5.4726563,1.0244141-8.8720703,2.8681641-8.8720703,5.8378906v109.7753906h80.8447266
	c2.7978516,2.5224609,6.9179688,4.0800781,11.4707031,4.0800781c4.5664063,0,8.6679688-1.5576172,11.4443359-4.0800781h78.8378906
	V301.8193359C345.3359375,299.3818359,342.5869141,297.7958984,338.109375,296.828125L338.109375,296.828125z
	 M253.9804688,402.9521484c-6.7177734-2.7773438-29.8349609-11.5615234-52.9892578-11.5615234
	c-9.1445313,0-17.25,1.3886719-24.1699219,4.1669922V288.9521484c4.0556641-1.3261719,15.0253906-4.5019531,28.5380859-4.5019531
	c17.7939453,0,33.0703125,5.3779297,45.5302734,15.8388672v63.6445313l3.0908203-3.3994141V402.9521484z M332.8671875,395.5859375
	c-7.4228516-2.9755859-15.9238281-4.4775391-25.3583984-4.4775391c-23.1513672,0-45.1669922,8.8691406-51.7734375,11.7880859
	v-42.3623047l3.0625,3.3994141v-63.6445313c12.4677734-10.4580078,27.7421875-15.8388672,45.5341797-15.8388672
	c13.4833984,0,24.5126953,3.1757813,28.5351563,4.5019531V395.5859375z"/>
		<path class="st1" d="M456.1601563,310.9550781c0-110.9038086-54.4501953-228.2900391-200.8046875-228.2900391
			c-143.7216797,0-200.8056641,117.3862305-200.8056641,228.2900391"/>
		<path class="st2" d="M359.7099609,131.0917969c-30.4765625-18.3681641-66.1767578-28.9492188-104.3544922-28.9492188
			c-38.1787109,0-73.8789063,10.5810547-104.3564453,28.9492188"/>
			<path class="st0" d="M63.2036133,374.9267578c0,15.6835938,7.6416016,25.4365234,19.1025391,25.4365234h20.609375
				c6.2192383,0,5.6308594-5.0419922,5.6308594-11.2597656V279.2138672c0-6.2197266-5.0415039-11.2597656-11.2607422-11.2597656
				H74.4633789c-6.2182617,0-11.2597656,5.0400391-11.2597656,11.2597656V374.9267578z"/>
			<path class="st0" d="M65.2788086,306.3300781c0-4.8320313-3.9179688-8.75-8.7509766-8.75l0,0
				c-4.8330078,0-8.7509766,3.9179688-8.7509766,8.75v60.7851563c0,4.8320313,3.9179688,8.7509766,8.7509766,8.7509766l0,0
				c4.8330078,0,8.7509766-3.9189453,8.7509766-8.7509766V306.3300781z"/>
		<path class="st0" d="M155.6967773,406.8300781c0,11.9873047-9.7172852,21.7050781-21.7050781,21.7050781h-15.3227539
			c-11.987793,0-21.7050781-9.7177734-21.7050781-21.7050781V265.7460938c0-11.9882813,9.7172852-21.7060547,21.7050781-21.7060547
			h15.3227539c11.987793,0,21.7050781,9.7177734,21.7050781,21.7060547V406.8300781z"/>
			<path class="st0" d="M447.1435547,374.9267578c0,15.6835938-7.6416016,25.4365234-19.1025391,25.4365234h-20.609375
				c-6.21875,0-5.6308594-5.0419922-5.6308594-11.2597656V279.2138672c0-6.2197266,5.0419922-11.2597656,11.2617188-11.2597656
				h22.8212891c6.21875,0,11.2597656,5.0400391,11.2597656,11.2597656V374.9267578z"/>
			<path class="st0" d="M445.0683594,306.3300781c0-4.8320313,3.9179688-8.75,8.7509766-8.75l0,0
				c4.8330078,0,8.7509766,3.9179688,8.7509766,8.75v60.7851563c0,4.8320313-3.9179688,8.7509766-8.7509766,8.7509766l0,0
				c-4.8330078,0-8.7509766-3.9189453-8.7509766-8.7509766V306.3300781z"/>
		<path class="st0" d="M351.3408203,406.8300781c0,11.9873047,9.7167969,21.7050781,21.7050781,21.7050781h15.3222656
			c11.9873047,0,21.7050781-9.7177734,21.7050781-21.7050781V265.7460938c0-11.9882813-9.7177734-21.7060547-21.7050781-21.7060547
			h-15.3222656c-11.9882813,0-21.7050781,9.7177734-21.7050781,21.7060547V406.8300781z"/>
</svg>
