<?xml version="1.0" encoding="utf-8"?>
<!DOCTYPE svg PUBLIC "-//W3C//DTD SVG 1.1//EN" "http://www.w3.org/Graphics/SVG/1.1/DTD/svg11.dtd">
<svg version="1.1" id="Layer_1" xmlns="http://www.w3.org/2000/svg" viewBox="0 0 512 512">
<style type="text/css">
<![CDATA[
	.st0{fill:#9182c4;}
]]>
</style>
<g>
	<g>
		<path class="st0" d="M133.9868164,474.578125c0,18.2451172-10.1000977,29.703125-26.1889648,29.703125
			c-16.0478516,0-26.1479492-11.4580078-26.1479492-29.703125c0-18.2441406,10.1000977-29.7412109,26.1479492-29.7412109
			C123.8466797,444.8369141,133.9868164,456.3339844,133.9868164,474.578125z M87.2382813,474.578125
			c0,15.0908203,7.9453125,24.6328125,20.5595703,24.6328125c12.6152344,0,20.6005859-9.5419922,20.6005859-24.6328125
			c0-15.1289063-7.9853516-24.6708984-20.6005859-24.6708984C95.1835938,449.9072266,87.2382813,459.4492188,87.2382813,474.578125z
			"/>
		<path class="st0" d="M147.8798828,503.3623047h-5.4291992v-57.6064453h20.3193359
			c11.2578125,0,18.4443359,6.5859375,18.4443359,16.8457031c0,8.1445313-4.6313477,14.2929688-12.3364258,16.2890625
			l13.9726563,24.4716797h-6.387207l-13.2539063-23.5927734c-0.1992188,0-0.5991211,0-0.878418,0h-14.4511719V503.3623047z
			 M147.8798828,474.9384766h14.4511719c8.3837891,0,13.2543945-4.4716797,13.2543945-12.1767578
			c0-7.625-5.0698242-12.1357422-13.4541016-12.1357422h-14.2514648V474.9384766z"/>
		<path class="st0" d="M209.6777344,445.7558594c11.019043,0,18.484375,7.2255859,18.484375,17.9238281
			c0,10.6992188-7.5454102,17.9648438-18.5239258,17.9648438h-14.1323242v21.7177734h-5.4291992v-57.6064453H209.6777344z
			 M195.5058594,476.7744141h12.8945313c8.862793,0,14.1723633-4.9111328,14.1723633-13.0947266
			s-5.2695313-13.0537109-14.1723633-13.0537109h-12.8945313V476.7744141z"/>
		<path class="st0" d="M275.109375,503.3623047v-27.0263672h-33.6938477v27.0263672h-5.4287109v-57.6064453h5.4287109v25.6289063
			h33.6938477v-25.6289063h5.4697266v57.6064453H275.109375z"/>
		<path class="st0" d="M326.1289063,503.3623047h-34.7714844v-57.6064453h34.7714844v4.9501953h-29.3417969v20.71875h27.8652344
			v4.8701172h-27.8652344v22.1171875h29.3417969V503.3623047z"/>
		<path class="st0" d="M340.859375,482.921875c0,9.6621094,6.3085938,16.2890625,16.8476563,16.2890625
			c10.5800781,0,16.8476563-6.6269531,16.8476563-16.2890625v-37.1660156h5.46875v37.4863281
			c0,12.4150391-8.4628906,21.0390625-22.3164063,21.0390625c-13.8525391,0-22.2763672-8.6240234-22.2763672-21.0390625v-37.4863281
			h5.4287109V482.921875z"/>
		<path class="st0" d="M393.4355469,487.7128906c0.5996094,6.90625,7.1074219,11.6171875,16.1308594,11.6171875
			c8.6210938,0,14.8095703-4.7109375,14.8095703-11.1777344c0-5.3896484-3.7128906-8.5839844-12.2548828-10.7382813
			l-7.1474609-1.8378906c-10.6582031-2.7148438-15.4091797-7.2246094-15.4091797-14.8105469
			c0-9.3017578,8.3847656-15.9287109,19.7207031-15.9287109c11.21875,0,19.4414063,6.6269531,19.7617188,15.7695313h-5.46875
			c-0.5195313-6.5078125-6.2675781-10.8193359-14.4521484-10.8193359c-7.9833984,0-13.8916016,4.4316406-13.8916016,10.7792969
			c0,4.9492188,3.5917969,7.8652344,12.0546875,10.0195313l6.2285156,1.5976563
			c11.5761719,2.9140625,16.4472656,7.3457031,16.4472656,15.3701172c0,10.1005859-8.1435547,16.7275391-20.8779297,16.7275391
			c-12.0566406,0-20.5195313-6.6679688-21.1181641-16.5683594H393.4355469z"/>
	</g>
	<path id="XMLID_181_" class="st0" d="M355.40625,99.2275391c5.7519531,8.7519531,15.6230469,14.5488281,26.8896484,14.5488281
		c17.7802734,0,32.2060547-14.4169922,32.2060547-32.2109375c0-17.7880859-14.4257813-32.2060547-32.2060547-32.2060547
		c-11.7138672,0-21.9541016,7.4370117-31.0498047,15.1225586h-42.0351563V43.4223633
		c0-3.7241211-3.0136719-6.7387695-6.7392578-6.7387695s-6.7392578,3.0146484-6.7392578,6.7387695v21.059082h-13.4765625V29.9458008
		c0-3.7241211-3.0146484-6.7382813-6.7382813-6.7382813c-3.7265625,0-6.7392578,3.0141602-6.7392578,6.7382813v34.5356445
		h-13.4760742V16.46875c0-3.7250977-3.0151367-6.7392578-6.7412109-6.7392578c-3.7236328,0-6.7387695,3.0141602-6.7387695,6.7392578
		v48.0126953h-13.4765625V29.9458008c0-3.7241211-3.0141602-6.7382813-6.7387695-6.7382813
		c-3.7250977,0-6.7392578,3.0141602-6.7392578,6.7382813v34.5356445h-13.4760742v-21.059082
		c0-3.7241211-3.0141602-6.7387695-6.7392578-6.7387695c-3.7246094,0-6.7392578,3.0146484-6.7392578,6.7387695v21.059082
		h-42.0356445c-9.0166016-7.6210938-19.2426758-15.1230469-31.0483398-15.1230469
		c-17.7807617,0-32.2050781,14.418457-32.2050781,32.2055664c0,17.7944336,14.4243164,32.2119141,32.2050781,32.2119141
		c11.265625,0,21.1376953-5.7910156,26.8896484-14.5429688c5.2509766,6.9033203,10.1333008,15.2871094,12.9628906,25.5463867
		c6.8061523,24.6513672,0.7636719,53.1455078-17.9521484,84.6796875
		c-37.9833984,64.015625-30.1254883,105.2460938-16.8461914,128.5615234
		c18.2680664,32.0849609,58.0668945,50.8349609,112.6474609,53.921875l13.3344727,20.4394531
		c0.7753906,1.1904297,2.105957,1.9150391,3.5380859,1.9150391c1.4345703,0,2.7646484-0.7246094,3.5424805-1.9150391
		l13.3706055-20.5126953c53.7119141-3.375,92.8398438-22.0976563,110.9238281-53.8486328
		c13.2792969-23.3154297,21.1367188-64.5458984-16.8457031-128.5615234
		c-18.7167969-31.5341797-24.7578125-60.0283203-17.9541016-84.6796875
		C345.2714844,114.5200195,350.1552734,106.137207,355.40625,99.2275391z M295.7324219,91.4360352v269.1625977
		c-4.34375,0.9931641-8.7773438,1.8955078-13.4765625,2.5927734V91.4360352H295.7324219z M268.7783203,91.4360352v273.3354492
		c-1.0927734,0.0917969-2.2119141,0.1582031-3.3173828,0.2294922l-10.1586914-15.5751953V91.4360352H268.7783203z
		 M241.8237305,91.4360352v260.574707l-8.5136719,13.0498047c-1.6455078-0.0986328-3.3442383-0.1582031-4.9633789-0.2890625
		V91.4360352H241.8237305z M214.8686523,91.4360352v271.7553711c-4.6972656-0.6982422-9.1328125-1.5996094-13.4755859-2.5927734
		V91.4360352H214.8686523z M143.2993164,324.6806641c-13.9648438-24.5263672-8.2128906-59.6142578,16.6235352-101.4677734
		c22.7016602-38.265625,29.637207-73.953125,20.6083984-106.0595703
		c-2.7495117-9.7724609-6.7910156-18.2880859-11.3701172-25.7172852h18.7539063V356.828125
		C167.0419922,349.8720703,151.4848633,339.0400391,143.2993164,324.6806641z M353.8261719,324.6806641
		c-8.1875,14.3603516-23.7431641,25.1914063-44.6152344,32.1474609V91.4360352h18.7529297
		c-4.5791016,7.4291992-8.6181641,15.9448242-11.3701172,25.7172852
		c-9.03125,32.1064453-2.0947266,67.7949219,20.609375,106.0595703
		C362.0380859,265.0664063,367.7910156,300.1542969,353.8261719,324.6806641z"/>
</g>
</svg>
